%YAML 1.1
%TAG !u! tag:unity3d.com,2011:
--- !u!114 &11400000
MonoBehaviour:
  m_ObjectHideFlags: 0
  m_CorrespondingSourceObject: {fileID: 0}
  m_PrefabInternal: {fileID: 0}
  m_GameObject: {fileID: 0}
  m_Enabled: 1
  m_EditorHideFlags: 0
  m_Script: {fileID: 11500000, guid: 06e0d57993c322647ad82fb83500f28f, type: 3}
  m_Name: Ground_Set_Inicial
  m_EditorClassIdentifier: 
  plataformas:
  - {fileID: 1766795601559806, guid: ac057678ad4022b42b3afbb35f491830, type: 2}
  - {fileID: 1942550731584262, guid: c59fda89abfd4d848b65734d8c45841b, type: 2}
  - {fileID: 1988222952990190, guid: 1641b2b826609bf4581832f7ac85b5bd, type: 2}
  - {fileID: 1032089208723064, guid: de354cb5d1c5de74682e903ad4ef40a0, type: 2}
  - {fileID: 1336854680983268, guid: 54a1dce8b9c3f56449a795d0a9139e71, type: 2}
  ultimaPlataformaGround: {fileID: 0}
  ultimaPlataformaTopo: {fileID: 0}
  distanciaMaxima: 50
