%YAML 1.1
%TAG !u! tag:unity3d.com,2011:
--- !u!114 &11400000
MonoBehaviour:
  m_ObjectHideFlags: 0
  m_PrefabParentObject: {fileID: 0}
  m_PrefabInternal: {fileID: 0}
  m_GameObject: {fileID: 0}
  m_Enabled: 1
  m_EditorHideFlags: 0
  m_Script: {fileID: 11500000, guid: 72bc0d1a997cd164aa66fa461b8d294c, type: 3}
  m_Name: Spam_Shernokats
  m_EditorClassIdentifier: 
  shernokats:
  - {fileID: 1328429750826406, guid: 98965e777b84f7f40a58d7cbc9fa2ad1, type: 2}
