%YAML 1.1
%TAG !u! tag:unity3d.com,2011:
--- !u!114 &11400000
MonoBehaviour:
  m_ObjectHideFlags: 0
  m_CorrespondingSourceObject: {fileID: 0}
  m_PrefabInternal: {fileID: 0}
  m_GameObject: {fileID: 0}
  m_Enabled: 1
  m_EditorHideFlags: 0
  m_Script: {fileID: 11500000, guid: cf5449c6a0658524a857c605b97d2a0f, type: 3}
  m_Name: "Conquista_Exterm\xEDnio IV"
  m_EditorClassIdentifier: 
  nome: "Exterm\xEDnio IV"
  descricao: Mate 200 Shernokats
  isConquistaCompleta: 0
  qtdeRecompensa: 350
  qtdeMatar: 200
